\relax 
\providecommand\hyper@newdestlabel[2]{}
\providecommand*\new@tpo@label[2]{}
\providecommand\HyperFirstAtBeginDocument{\AtBeginDocument}
\HyperFirstAtBeginDocument{\ifx\hyper@anchor\@undefined
\global\let\oldcontentsline\contentsline
\gdef\contentsline#1#2#3#4{\oldcontentsline{#1}{#2}{#3}}
\global\let\oldnewlabel\newlabel
\gdef\newlabel#1#2{\newlabelxx{#1}#2}
\gdef\newlabelxx#1#2#3#4#5#6{\oldnewlabel{#1}{{#2}{#3}}}
\AtEndDocument{\ifx\hyper@anchor\@undefined
\let\contentsline\oldcontentsline
\let\newlabel\oldnewlabel
\fi}
\fi}
\global\let\hyper@last\relax 
\gdef\HyperFirstAtBeginDocument#1{#1}
\providecommand\HyField@AuxAddToFields[1]{}
\providecommand\HyField@AuxAddToCoFields[2]{}
\@writefile{toc}{\contentsline {section}{\numberline {1}Transformation of DNA on Competent Cells}{2}{section.1}}
\@writefile{toc}{\contentsline {subsection}{\numberline {1.1}Materials \& Equipment}{2}{subsection.1.1}}
\@writefile{toc}{\contentsline {subsection}{\numberline {1.2}Procedure}{2}{subsection.1.2}}
\@writefile{toc}{\contentsline {section}{\numberline {2}Miniprep DNA extraction}{2}{section.2}}
\@writefile{toc}{\contentsline {subsection}{\numberline {2.1}Buffers}{2}{subsection.2.1}}
\@writefile{toc}{\contentsline {subsection}{\numberline {2.2}Materials \& Equipment}{3}{subsection.2.2}}
\@writefile{toc}{\contentsline {subsection}{\numberline {2.3}Procedure}{3}{subsection.2.3}}
\@writefile{toc}{\contentsline {section}{\numberline {3}Plasmid DNA purification}{3}{section.3}}
\@writefile{toc}{\contentsline {section}{\numberline {4}Lipofectin Transfection}{4}{section.4}}
\@writefile{toc}{\contentsline {subsection}{\numberline {4.1}Materials \& Equipment}{4}{subsection.4.1}}
\@writefile{toc}{\contentsline {subsection}{\numberline {4.2}Procedure}{4}{subsection.4.2}}
\@writefile{toc}{\contentsline {section}{\numberline {5}DNA extraction from whole blood}{4}{section.5}}
\@writefile{toc}{\contentsline {subsection}{\numberline {5.1}Buffers}{4}{subsection.5.1}}
\@writefile{toc}{\contentsline {subsection}{\numberline {5.2}Materials \& Methods}{5}{subsection.5.2}}
\@writefile{toc}{\contentsline {subsection}{\numberline {5.3}Procedure}{5}{subsection.5.3}}
\@writefile{toc}{\contentsline {section}{\numberline {6}Polymerase Chain Reaction}{6}{section.6}}
\@writefile{toc}{\contentsline {subsection}{\numberline {6.1}Materials \& Equipment}{6}{subsection.6.1}}
\@writefile{toc}{\contentsline {subsection}{\numberline {6.2}Procedure}{6}{subsection.6.2}}
\providecommand*\caption@xref[2]{\@setref\relax\@undefined{#1}}
\newlabel{Tab:finalmix}{{1a}{6}{Components of the Master Mix\relax }{table.caption.3}{}}
\newlabel{sub@Tab:finalmix}{{a}{6}{Components of the Master Mix\relax }{table.caption.3}{}}
\newlabel{Tab:MTRprotocol}{{1b}{6}{MyTaqRed Protocol\relax }{table.caption.3}{}}
\newlabel{sub@Tab:MTRprotocol}{{b}{6}{MyTaqRed Protocol\relax }{table.caption.3}{}}
\@writefile{toc}{\contentsline {section}{\numberline {7}quantitative PCR}{6}{section.7}}
\@writefile{toc}{\contentsline {subsection}{\numberline {7.1}Materials \& Equipment}{7}{subsection.7.1}}
\@writefile{toc}{\contentsline {subsection}{\numberline {7.2}First Use Preparation}{7}{subsection.7.2}}
\@writefile{toc}{\contentsline {subsection}{\numberline {7.3}Procedure}{7}{subsection.7.3}}
\@writefile{lot}{\contentsline {table}{\numberline {2}{\ignorespaces Components of the Master Mix\relax }}{8}{table.caption.4}}
\newlabel{Tab:finalmix}{{2}{8}{Components of the Master Mix\relax }{table.caption.4}{}}
\@writefile{toc}{\contentsline {subsection}{\numberline {7.4}SDS software}{8}{subsection.7.4}}
\@writefile{lot}{\contentsline {table}{\numberline {3}{\ignorespaces qPCR time protocol\relax }}{8}{table.caption.5}}
\newlabel{Tab:qPCR_time_protocol}{{3}{8}{qPCR time protocol\relax }{table.caption.5}{}}
\@writefile{toc}{\contentsline {section}{\numberline {8}DNA extraction from Gel Electrophoresis}{8}{section.8}}
\@writefile{toc}{\contentsline {section}{\numberline {9}Triple Trizol (DNA)}{9}{section.9}}
\@writefile{toc}{\contentsline {subsection}{\numberline {9.1}Materials \& Equipment}{9}{subsection.9.1}}
\@writefile{toc}{\contentsline {subsection}{\numberline {9.2}Procedure}{9}{subsection.9.2}}
\@writefile{toc}{\contentsline {section}{\numberline {10}PCR DNA purification}{9}{section.10}}
\global\@namedef{scr@dte@section@lastmaxnumwidth}{16.8629pt}
\global\@namedef{scr@dte@subsection@lastmaxnumwidth}{18.36295pt}
